work_date,holiday
2018/4/1,1
2018/4/2,0
2018/4/3,0
2018/4/4,0
2018/4/5,0
2018/4/6,0
2018/4/7,1
2018/4/8,1
2018/4/9,0
2018/4/10,0
2018/4/11,0
2018/4/12,0
2018/4/13,0
2018/4/14,1
2018/4/15,1
2018/4/16,0
2018/4/17,0
2018/4/18,0
2018/4/19,0
2018/4/20,0
2018/4/21,1
2018/4/22,1
2018/4/23,0
2018/4/24,0
2018/4/25,0
2018/4/26,0
2018/4/27,0
2018/4/28,1
2018/4/29,1
2018/4/30,0
2018/5/1,0
2018/5/2,0
2018/5/3,0
2018/5/4,0
2018/5/5,1
2018/5/6,1
2018/5/7,0
2018/5/8,0
2018/5/9,0
2018/5/10,0
2018/5/11,0
2018/5/12,1
2018/5/13,1
2018/5/14,0
2018/5/15,0
2018/5/16,0
2018/5/17,0
2018/5/18,0
2018/5/19,1
2018/5/20,1
2018/5/21,0
2018/5/22,0
2018/5/23,0
2018/5/24,0
2018/5/25,0
2018/5/26,1
2018/5/27,1
2018/5/28,0
2018/5/29,0
2018/5/30,0
2018/5/31,0
2018/6/1,0
2018/6/2,1
2018/6/3,1
2018/6/4,0
2018/6/5,0
2018/6/6,0
2018/6/7,0
2018/6/8,0
2018/6/9,1
2018/6/10,1
2018/6/11,0
2018/6/12,0
2018/6/13,0
2018/6/14,0
2018/6/15,0
2018/6/16,1
2018/6/17,1
2018/6/18,0
2018/6/19,0
2018/6/20,0
2018/6/21,0
2018/6/22,0
2018/6/23,1
2018/6/24,1
2018/6/25,0
2018/6/26,0
2018/6/27,0
2018/6/28,0
2018/6/29,0
2018/6/30,1
2018/7/1,1
2018/7/2,0
2018/7/3,0
2018/7/4,0
2018/7/5,0
2018/7/6,0
2018/7/7,1
2018/7/8,1
2018/7/9,0
2018/7/10,0
2018/7/11,0
2018/7/12,0
2018/7/13,0
2018/7/14,1
2018/7/15,1
2018/7/16,0
2018/7/17,0
2018/7/18,0
2018/7/19,0
2018/7/20,0
2018/7/21,1
2018/7/22,1
2018/7/23,0
2018/7/24,0
2018/7/25,0
2018/7/26,0
2018/7/27,0
2018/7/28,1
2018/7/29,1
2018/7/30,0
2018/7/31,0
2018/8/1,0
2018/8/2,0
2018/8/3,0
2018/8/4,1
2018/8/5,1
2018/8/6,0
2018/8/7,0
2018/8/8,0
2018/8/9,0
2018/8/10,0
2018/8/11,1
2018/8/12,1
2018/8/13,0
2018/8/14,0
2018/8/15,0
2018/8/16,0
2018/8/17,0
2018/8/18,1
2018/8/19,1
2018/8/20,0
2018/8/21,0
2018/8/22,0
2018/8/23,0
2018/8/24,0
2018/8/25,1
2018/8/26,1
2018/8/27,0
2018/8/28,0
2018/8/29,0
2018/8/30,0
2018/8/31,0
2018/9/1,1
2018/9/2,1
2018/9/3,0
2018/9/4,0
2018/9/5,0
2018/9/6,0
2018/9/7,0
2018/9/8,1
2018/9/9,1
2018/9/10,0
2018/9/11,0
2018/9/12,0
2018/9/13,0
2018/9/14,0
2018/9/15,1
2018/9/16,1
2018/9/17,0
2018/9/18,0
2018/9/19,0
2018/9/20,0
2018/9/21,0
2018/9/22,1
2018/9/23,1
2018/9/24,0
2018/9/25,0
2018/9/26,0
2018/9/27,0
2018/9/28,0
2018/9/29,1
2018/9/30,1
2018/10/1,0
2018/10/2,0
2018/10/3,0
2018/10/4,0
2018/10/5,0
2018/10/6,1
2018/10/7,1
2018/10/8,0
2018/10/9,0
2018/10/10,0
2018/10/11,0
2018/10/12,0
2018/10/13,1
2018/10/14,1
2018/10/15,0
2018/10/16,0
2018/10/17,0
2018/10/18,0
2018/10/19,0
2018/10/20,1
2018/10/21,1
2018/10/22,0
2018/10/23,0
2018/10/24,0
2018/10/25,0
2018/10/26,0
2018/10/27,1
2018/10/28,1
2018/10/29,0
2018/10/30,0
2018/10/31,0
2018/11/1,0
2018/11/2,0
2018/11/3,1
2018/11/4,1
2018/11/5,0
2018/11/6,0
2018/11/7,0
2018/11/8,0
2018/11/9,0
2018/11/10,1
2018/11/11,1
2018/11/12,0
2018/11/13,0
2018/11/14,0
2018/11/15,0
2018/11/16,0
2018/11/17,1
2018/11/18,1
2018/11/19,0
2018/11/20,0
2018/11/21,0
2018/11/22,0
2018/11/23,0
2018/11/24,1
2018/11/25,1
2018/11/26,0
2018/11/27,0
2018/11/28,0
2018/11/29,0
2018/11/30,0
2018/12/1,1
2018/12/2,1
2018/12/3,0
2018/12/4,0
2018/12/5,0
2018/12/6,0
2018/12/7,0
2018/12/8,1
2018/12/9,1
2018/12/10,0
2018/12/11,0
2018/12/12,0
2018/12/13,0
2018/12/14,0
2018/12/15,1
2018/12/16,1
2018/12/17,0
2018/12/18,0
2018/12/19,0
2018/12/20,0
2018/12/21,0
2018/12/22,1
2018/12/23,1
2018/12/24,0
2018/12/25,0
2018/12/26,0
2018/12/27,0
2018/12/28,0
2018/12/29,1
2018/12/30,1
2018/12/31,0
2019/1/1,0
2019/1/2,0
2019/1/3,0
2019/1/4,0
2019/1/5,1
2019/1/6,1
2019/1/7,0
2019/1/8,0
2019/1/9,0
2019/1/10,0
2019/1/11,0
2019/1/12,1
2019/1/13,1
2019/1/14,0
2019/1/15,0
2019/1/16,0
2019/1/17,0
2019/1/18,0
2019/1/19,1
2019/1/20,1
2019/1/21,0
2019/1/22,0
2019/1/23,0
2019/1/24,0
2019/1/25,0
2019/1/26,1
2019/1/27,1
2019/1/28,0
2019/1/29,0
2019/1/30,0
2019/1/31,0
2019/2/1,0
2019/2/2,1
2019/2/3,1
2019/2/4,0
2019/2/5,0
2019/2/6,0
2019/2/7,0
2019/2/8,0
2019/2/9,1
2019/2/10,1
2019/2/11,0
2019/2/12,0
2019/2/13,0
2019/2/14,0
2019/2/15,0
2019/2/16,1
2019/2/17,1
2019/2/18,0
2019/2/19,0
2019/2/20,0
2019/2/21,0
2019/2/22,0
2019/2/23,1
2019/2/24,1
2019/2/25,0
2019/2/26,0
2019/2/27,0
2019/2/28,0
2019/3/1,0
2019/3/2,1
2019/3/3,1
2019/3/4,0
2019/3/5,0
2019/3/6,0
2019/3/7,0
2019/3/8,0
2019/3/9,1
2019/3/10,1
2019/3/11,0
2019/3/12,0
2019/3/13,0
2019/3/14,0
2019/3/15,0
2019/3/16,1
2019/3/17,1
2019/3/18,0
2019/3/19,0
2019/3/20,0
2019/3/21,0
2019/3/22,0
2019/3/23,1
2019/3/24,1
2019/3/25,0
2019/3/26,0
2019/3/27,0
2019/3/28,0
2019/3/29,0
2019/3/30,1
